1.B站视频弹幕
2.浏览器抓包，找到"https://api.bilibili.com/x/v2/dm/web/seg.so?type=1&oid=182508985&pid=582952251&segment_index=3"
3.分析获取oid的值
4.直接请求：https://comment.bilibili.com/182508985.xml   得到弹幕结果
5.利用正则表达式提取弹幕 result = re.findall(r'<d\sp=.*?>(.*?)</d>',r.content.decode("utf-8"))